\babel@toc {english}{}\relax 
\contentsline {section}{Εισαγωγή}{2}{Doc-Start}%
\contentsline {subsection}{Τεχνικές Λεπτομέρειες}{2}{section*.1}%
\contentsline {subsubsection}{Συγγραφή}{2}{section*.1}%
\contentsline {subsubsection}{Προγραμματισμός}{2}{section*.1}%
\contentsline {subsection}{Εξηγήσεις για τον φάκελο παραδοτέου}{2}{section*.1}%
\contentsline {subsection}{Αποθετήριο της εργασίας}{2}{section*.1}%
\contentsline {section}{\numberline {1}Γνωριμία με την Lucene}{3}{section.1}%
\contentsline {subsection}{\numberline {1.1}Ερώτηση 1}{3}{subsection.1.1}%
\contentsline {subsection}{\numberline {1.2}Ερώτηση 2}{3}{subsection.1.2}%
\contentsline {section}{\numberline {2}Απαιτήσεις Συστήματος-Εγκατάσταση}{6}{section.2}%
\contentsline {subsection}{\numberline {2.1}Ερώτηση 3}{6}{subsection.2.1}%
\contentsline {subsection}{\numberline {2.2}Ερώτηση 4}{7}{subsection.2.2}%
\contentsline {subsection}{\numberline {2.3}Ερώτηση 5}{8}{subsection.2.3}%
\contentsline {section}{\numberline {3}Μηχανή αναζήτησης σε Python}{9}{section.3}%
\contentsline {subsection}{\numberline {3.1}Ερώτηση 6}{9}{subsection.3.1}%
\contentsline {subsection}{\numberline {3.2}Ερώτηση 7}{17}{subsection.3.2}%
\contentsline {subsection}{\numberline {3.3}Ερώτηση 8}{18}{subsection.3.3}%
\contentsline {subsection}{\numberline {3.4}Ερώτηση 9}{19}{subsection.3.4}%
