\relax 
\providecommand\hyper@newdestlabel[2]{}
\providecommand\babel@aux[2]{}
\@nameuse{bbl@beforestart}
\providecommand\HyperFirstAtBeginDocument{\AtBeginDocument}
\HyperFirstAtBeginDocument{\ifx\hyper@anchor\@undefined
\global\let\oldcontentsline\contentsline
\gdef\contentsline#1#2#3#4{\oldcontentsline{#1}{#2}{#3}}
\global\let\oldnewlabel\newlabel
\gdef\newlabel#1#2{\newlabelxx{#1}#2}
\gdef\newlabelxx#1#2#3#4#5#6{\oldnewlabel{#1}{{#2}{#3}}}
\AtEndDocument{\ifx\hyper@anchor\@undefined
\let\contentsline\oldcontentsline
\let\newlabel\oldnewlabel
\fi}
\fi}
\global\let\hyper@last\relax 
\gdef\HyperFirstAtBeginDocument#1{#1}
\providecommand*\HyPL@Entry[1]{}
\providecommand*\new@tpo@label[2]{}
\HyPL@Entry{0<</S/D>>}
\babel@aux{english}{}
\HyPL@Entry{1<</S/D>>}
\@writefile{toc}{\contentsline {section}{Εισαγωγή}{2}{Doc-Start}\protected@file@percent }
\@writefile{toc}{\contentsline {subsection}{Τεχνικές Λεπτομέρειες}{2}{section*.1}\protected@file@percent }
\@writefile{toc}{\contentsline {subsubsection}{Συγγραφή}{2}{section*.1}\protected@file@percent }
\@writefile{toc}{\contentsline {subsubsection}{Προγραμματισμός}{2}{section*.1}\protected@file@percent }
\@writefile{toc}{\contentsline {subsection}{Εξηγήσεις για τον φάκελο παραδοτέου}{2}{section*.1}\protected@file@percent }
\@writefile{toc}{\contentsline {subsection}{Αποθετήριο της εργασίας}{2}{section*.1}\protected@file@percent }
\@writefile{toc}{\contentsline {section}{\numberline {1}Γνωριμία με την Lucene}{3}{section.1}\protected@file@percent }
\@writefile{toc}{\contentsline {subsection}{\numberline {1.1}Ερώτηση 1}{3}{subsection.1.1}\protected@file@percent }
\@writefile{toc}{\contentsline {subsection}{\numberline {1.2}Ερώτηση 2}{3}{subsection.1.2}\protected@file@percent }
\@writefile{toc}{\contentsline {section}{\numberline {2}Απαιτήσεις Συστήματος-Εγκατάσταση}{6}{section.2}\protected@file@percent }
\@writefile{toc}{\contentsline {subsection}{\numberline {2.1}Ερώτηση 3}{6}{subsection.2.1}\protected@file@percent }
\@writefile{toc}{\contentsline {subsection}{\numberline {2.2}Ερώτηση 4}{7}{subsection.2.2}\protected@file@percent }
\@writefile{toc}{\contentsline {subsection}{\numberline {2.3}Ερώτηση 5}{8}{subsection.2.3}\protected@file@percent }
\@writefile{toc}{\contentsline {section}{\numberline {3}Μηχανή αναζήτησης σε Python}{9}{section.3}\protected@file@percent }
\@writefile{toc}{\contentsline {subsection}{\numberline {3.1}Ερώτηση 6}{9}{subsection.3.1}\protected@file@percent }
\@writefile{toc}{\contentsline {subsection}{\numberline {3.2}Ερώτηση 7}{16}{subsection.3.2}\protected@file@percent }
\@writefile{toc}{\contentsline {subsection}{\numberline {3.3}Άσκηση 8}{18}{subsection.3.3}\protected@file@percent }
\@writefile{toc}{\contentsline {subsection}{\numberline {3.4}Άσκηση 9}{19}{subsection.3.4}\protected@file@percent }
\gdef\svg@ink@ver@settings{{\m@ne }{inkscape}{1}}
\gdef \@abspage@last{20}
